Predição de Vendas de Bilheteria
…
## [1] "Dataset sem valores faltantes em Gênero do Filme"

## [1] 91050     7

## [1] "Retirada de: 0.16% da base"

## [1] "Variável: Dias de Vendas Após a Estréia"

## # A tibble: 3,155 x 7
##    Filme `Datas das Vendas`  Estreia             `Dias de Vendas…
##    <chr> <dttm>              <dttm>              <chr>           
##  1 2 OU… 2018-12-06 00:00:00 NA                  Falha ao retona…
##  2 2 OU… 2018-12-07 00:00:00 NA                  Falha ao retona…
##  3 2 OU… 2018-12-08 00:00:00 NA                  Falha ao retona…
##  4 2 OU… 2018-12-09 00:00:00 NA                  Falha ao retona…
##  5 2 OU… 2018-12-10 00:00:00 NA                  Falha ao retona…
##  6 2 OU… 2018-12-11 00:00:00 NA                  Falha ao retona…
##  7 2 OU… 2018-12-12 00:00:00 NA                  Falha ao retona…
##  8 2 OU… 2018-12-13 00:00:00 NA                  Falha ao retona…
##  9 2 OU… 2018-12-14 00:00:00 NA                  Falha ao retona…
## 10 2 OU… 2018-12-15 00:00:00 NA                  Falha ao retona…
## # … with 3,145 more rows, and 3 more variables: `Genero do Filme` <chr>,
## #   `Tickets vendidos Pela Ingresso.com` <dbl>, `Tickets vendidos pelo
## #   Cinema` <dbl>
…
## [1] 87895     7

## [1] "Retirada de: 3.62% da base original"

## [1] "Analisando NA em Datas das Vendas"

## # A tibble: 0 x 8
## # … with 8 variables: Filme <chr>, `Datas das Vendas` <dttm>, Estreia <dttm>,
## #   `Dias de Vendas após a Estréia` <chr>, `Genero do Filme` <chr>, `Tickets
## #   vendidos Pela Ingresso.com` <dbl>, `Tickets vendidos pelo Cinema` <dbl>,
## #   dia_estreia_novo <drtn>

## [1] "Analisando Na em Estreia"

## # A tibble: 65 x 8
##    Filme `Datas das Vendas`  Estreia             `Dias de Vendas…
##    <chr> <dttm>              <dttm>              <chr>           
##  1 GHOS… 2017-03-08 00:00:00 NA                  Mais de 100 dia…
##  2 GHOS… 2017-03-14 00:00:00 NA                  Mais de 100 dia…
##  3 GHOS… 2017-03-29 00:00:00 NA                  Mais de 100 dia…
##  4 GHOS… 2017-03-30 00:00:00 NA                  Mais de 100 dia…
##  5 GHOS… 2017-03-31 00:00:00 NA                  Mais de 100 dia…
##  6 GHOS… 2017-04-01 00:00:00 NA                  Mais de 100 dia…
##  7 GHOS… 2017-04-02 00:00:00 NA                  Mais de 100 dia…
##  8 GHOS… 2017-04-03 00:00:00 NA                  Mais de 100 dia…
##  9 GHOS… 2017-04-04 00:00:00 NA                  Mais de 100 dia…
## 10 GHOS… 2017-04-05 00:00:00 NA                  Mais de 100 dia…
## # … with 55 more rows, and 4 more variables: `Genero do Filme` <chr>, `Tickets
## #   vendidos Pela Ingresso.com` <dbl>, `Tickets vendidos pelo Cinema` <dbl>,
## #   dia_estreia_novo <drtn>

## [1] "GHOST IN THE SHELL 1995"

## [1] "ANIMACAO"

## [1] "Analisando valores 0 nas variáveis numéricas, a saber: Tickets vendidos Pela Ingresso.com"

## # A tibble: 37,217 x 8
##    Filme `Datas das Vendas`  Estreia             `Dias de Vendas…
##    <chr> <dttm>              <dttm>              <chr>           
##  1 10 S… 2018-10-18 00:00:00 2018-09-27 00:00:00 21              
##  2 10 S… 2018-10-28 00:00:00 2018-09-27 00:00:00 31              
##  3 10 S… 2018-10-30 00:00:00 2018-09-27 00:00:00 33              
##  4 10 S… 2018-11-01 00:00:00 2018-09-27 00:00:00 35              
##  5 10 S… 2018-11-03 00:00:00 2018-09-27 00:00:00 37              
##  6 10 S… 2018-11-05 00:00:00 2018-09-27 00:00:00 39              
##  7 10 S… 2018-11-06 00:00:00 2018-09-27 00:00:00 40              
##  8 10 S… 2018-11-07 00:00:00 2018-09-27 00:00:00 41              
##  9 10 S… 2018-11-13 00:00:00 2018-09-27 00:00:00 47              
## 10 10 S… 2018-11-14 00:00:00 2018-09-27 00:00:00 48              
## # … with 37,207 more rows, and 4 more variables: `Genero do Filme` <chr>,
## #   `Tickets vendidos Pela Ingresso.com` <dbl>, `Tickets vendidos pelo
## #   Cinema` <dbl>, dia_estreia_novo <drtn>

## [1] "Quantidade de filmes com valores iguais a zero: 1671"

## [1] "Analisando valores 0 nas variáveis numéricas, a saber: Tickets vendidos pelo Cinema"

## # A tibble: 9,521 x 8
##    Filme `Datas das Vendas`  Estreia             `Dias de Vendas…
##    <chr> <dttm>              <dttm>              <chr>           
##  1 100 … 2019-12-09 00:00:00 2020-03-05 00:00:00 Mais de 7 dias …
##  2 100 … 2019-12-13 00:00:00 2020-03-05 00:00:00 Mais de 7 dias …
##  3 100 … 2019-12-15 00:00:00 2020-03-05 00:00:00 Mais de 7 dias …
##  4 100 … 2019-12-18 00:00:00 2020-03-05 00:00:00 Mais de 7 dias …
##  5 101 … 2017-07-22 00:00:00 2016-04-21 00:00:00 Mais de 100 dia…
##  6 10A … 2018-11-22 00:00:00 2018-11-21 00:00:00 1               
##  7 10A … 2018-11-23 00:00:00 2018-11-21 00:00:00 2               
##  8 10A … 2018-11-24 00:00:00 2018-11-21 00:00:00 3               
##  9 10A … 2018-11-25 00:00:00 2018-11-21 00:00:00 4               
## 10 10A … 2018-11-26 00:00:00 2018-11-21 00:00:00 5               
## # … with 9,511 more rows, and 4 more variables: `Genero do Filme` <chr>,
## #   `Tickets vendidos Pela Ingresso.com` <dbl>, `Tickets vendidos pelo
## #   Cinema` <dbl>, dia_estreia_novo <drtn>
…
