Predição de Vendas de Bilheteria
…
## [1] "Padronização"

## [1] "De 74 gêneros únicos, passou para: 63"

## [1] "Variável: Datas de Vendas Após a Estréia com NA: "

## # A tibble: 0 x 9
## # … with 9 variables: Filme <chr>, `Datas das Vendas` <dttm>, Estreia <dttm>,
## #   `Dias de Vendas após a Estréia` <chr>, `Genero do Filme` <chr>, `Tickets
## #   vendidos Pela Ingresso.com` <dbl>, `Tickets vendidos pelo Cinema` <dbl>,
## #   ano <dbl>, ano_venda <dbl>

## [1] "Valor de bilheteria da ingressos.com dos filmes listados acima: Suposição de falhas técnicas."

## # A tibble: 29,838 x 10
##    Filme `Datas das Vendas`  Estreia             `Dias de Vendas…
##    <chr> <dttm>              <dttm>              <chr>           
##  1 10 S… 2018-10-18 00:00:00 2018-09-27 00:00:00 21              
##  2 10 S… 2018-10-28 00:00:00 2018-09-27 00:00:00 31              
##  3 10 S… 2018-10-30 00:00:00 2018-09-27 00:00:00 33              
##  4 10 S… 2018-11-01 00:00:00 2018-09-27 00:00:00 35              
##  5 10 S… 2018-11-03 00:00:00 2018-09-27 00:00:00 37              
##  6 10 S… 2018-11-05 00:00:00 2018-09-27 00:00:00 39              
##  7 10 S… 2018-11-06 00:00:00 2018-09-27 00:00:00 40              
##  8 10 S… 2018-11-07 00:00:00 2018-09-27 00:00:00 41              
##  9 10 S… 2018-11-13 00:00:00 2018-09-27 00:00:00 47              
## 10 10 S… 2018-11-14 00:00:00 2018-09-27 00:00:00 48              
## # … with 29,828 more rows, and 6 more variables: `Genero do Filme` <chr>,
## #   `Tickets vendidos Pela Ingresso.com` <dbl>, `Tickets vendidos pelo
## #   Cinema` <dbl>, ano <dbl>, ano_venda <dbl>, dia_estreia_novo <drtn>

## [1] "Valor de bilheteria dos cinemas dos filmes listados acima: Suposição de falhas técnicas."

## # A tibble: 8,207 x 10
##    Filme `Datas das Vendas`  Estreia             `Dias de Vendas…
##    <chr> <dttm>              <dttm>              <chr>           
##  1 100 … 2019-12-09 00:00:00 2020-03-05 00:00:00 Mais de 7 dias …
##  2 100 … 2019-12-13 00:00:00 2020-03-05 00:00:00 Mais de 7 dias …
##  3 100 … 2019-12-15 00:00:00 2020-03-05 00:00:00 Mais de 7 dias …
##  4 100 … 2019-12-18 00:00:00 2020-03-05 00:00:00 Mais de 7 dias …
##  5 10A … 2018-11-22 00:00:00 2018-11-21 00:00:00 1               
##  6 10A … 2018-11-23 00:00:00 2018-11-21 00:00:00 2               
##  7 10A … 2018-11-24 00:00:00 2018-11-21 00:00:00 3               
##  8 10A … 2018-11-25 00:00:00 2018-11-21 00:00:00 4               
##  9 10A … 2018-11-26 00:00:00 2018-11-21 00:00:00 5               
## 10 12 D… 2017-10-06 00:00:00 2017-10-06 00:00:00 0               
## # … with 8,197 more rows, and 6 more variables: `Genero do Filme` <chr>,
## #   `Tickets vendidos Pela Ingresso.com` <dbl>, `Tickets vendidos pelo
## #   Cinema` <dbl>, ano <dbl>, ano_venda <dbl>, dia_estreia_novo <drtn>
…
